newmtl 7___Default0
Ka 0 0 0
Ns 1.82212
Ks 0.898039 0.898039 0.898039
Kd 0.8 0.803921 0.733334
map_Kd 7___Default0.jpg
newmtl 7___Default1
Ka 0 0 0
Ns 1.82212
Ks 0.898039 0.898039 0.898039
Kd 0.8 0.803921 0.733334
map_Kd 7___Default1.jpg
newmtl 8___Default0
Ka 0 0 0
Ns 1.82212
Ks 0 0 0
Kd 0.231373 0.231373 0.231373
map_Kd 8___Default0.jpg
newmtl 8___Default1
Ka 0 0 0
Ns 1.82212
Ks 0 0 0
Kd 0.231373 0.231373 0.231373
map_Kd 8___Default1.jpg
newmtl 8___Default2
Ka 0 0 0
Ns 1.82212
Ks 0 0 0
Kd 0.231373 0.231373 0.231373
map_Kd 8___Default2.jpg
newmtl 9___Default0
Ka 0 0 0
Ns 1.82212
Ks 0.807843 0.807843 0.807843
Kd 0.481051 0.481051 0.481051
map_Kd 9___Default0.jpg
newmtl 9___Default1
Ka 0 0 0
Ns 1.82212
Ks 0.807843 0.807843 0.807843
Kd 0.481051 0.481051 0.481051
map_Kd 9___Default1.jpg
newmtl 9___Default2
Ka 0 0 0
Ns 1.82212
Ks 0.807843 0.807843 0.807843
Kd 0.481051 0.481051 0.481051
map_Kd 9___Default2.jpg
newmtl 9___Default3
Ka 0 0 0
Ns 1.82212
Ks 0.807843 0.807843 0.807843
Kd 0.481051 0.481051 0.481051
map_Kd 9___Default3.jpg
newmtl 8___Default3
Ka 0 0 0
Ns 1.82212
Ks 0 0 0
Kd 0.231373 0.231373 0.231373
map_Kd 8___Default3.jpg
newmtl 8___Default4
Ka 0 0 0
Ns 1.82212
Ks 0 0 0
Kd 0.231373 0.231373 0.231373
map_Kd 8___Default4.jpg
newmtl 6___Default0
Ka 0 0 0
Ns 1.82212
Ks 0.94902 0.94902 0.94902
Kd 0.729785 0.729785 0.729785
map_Kd 6___Default0.jpg
newmtl 7___Default2
Ka 0 0 0
Ns 1.82212
Ks 0.898039 0.898039 0.898039
Kd 0.8 0.803921 0.733334
map_Kd 7___Default2.jpg
newmtl 7___Default3
Ka 0 0 0
Ns 1.82212
Ks 0.898039 0.898039 0.898039
Kd 0.8 0.803921 0.733334
map_Kd 7___Default3.jpg
newmtl 9___Default4
Ka 0 0 0
Ns 1.82212
Ks 0.807843 0.807843 0.807843
Kd 0.481051 0.481051 0.481051
map_Kd 9___Default4.jpg
newmtl 7___Default4
Ka 0 0 0
Ns 1.82212
Ks 0.898039 0.898039 0.898039
Kd 0.8 0.803921 0.733334
map_Kd 7___Default4.jpg
newmtl 7___Default5
Ka 0 0 0
Ns 1.82212
Ks 0.898039 0.898039 0.898039
Kd 0.8 0.803921 0.733334
map_Kd 7___Default5.jpg
newmtl 8___Default5
Ka 0 0 0
Ns 1.82212
Ks 0 0 0
Kd 0.231373 0.231373 0.231373
map_Kd 8___Default5.jpg
newmtl 8___Default6
Ka 0 0 0
Ns 1.82212
Ks 0 0 0
Kd 0.231373 0.231373 0.231373
map_Kd 8___Default6.jpg
newmtl 8___Default7
Ka 0 0 0
Ns 1.82212
Ks 0 0 0
Kd 0.231373 0.231373 0.231373
map_Kd 8___Default7.jpg
newmtl 9___Default5
Ka 0 0 0
Ns 1.82212
Ks 0.807843 0.807843 0.807843
Kd 0.481051 0.481051 0.481051
map_Kd 9___Default5.jpg
newmtl 9___Default6
Ka 0 0 0
Ns 1.82212
Ks 0.807843 0.807843 0.807843
Kd 0.481051 0.481051 0.481051
map_Kd 9___Default6.jpg
newmtl 9___Default7
Ka 0 0 0
Ns 1.82212
Ks 0.807843 0.807843 0.807843
Kd 0.481051 0.481051 0.481051
map_Kd 9___Default7.jpg
newmtl 9___Default8
Ka 0 0 0
Ns 1.82212
Ks 0.807843 0.807843 0.807843
Kd 0.481051 0.481051 0.481051
map_Kd 9___Default8.jpg
newmtl 8___Default8
Ka 0 0 0
Ns 1.82212
Ks 0 0 0
Kd 0.231373 0.231373 0.231373
map_Kd 8___Default8.jpg
newmtl 8___Default9
Ka 0 0 0
Ns 1.82212
Ks 0 0 0
Kd 0.231373 0.231373 0.231373
map_Kd 8___Default9.jpg
newmtl 6___Default1
Ka 0 0 0
Ns 1.82212
Ks 0.94902 0.94902 0.94902
Kd 0.729785 0.729785 0.729785
map_Kd 6___Default1.jpg
newmtl 7___Default6
Ka 0 0 0
Ns 1.82212
Ks 0.898039 0.898039 0.898039
Kd 0.8 0.803921 0.733334
map_Kd 7___Default6.jpg
newmtl 7___Default7
Ka 0 0 0
Ns 1.82212
Ks 0.898039 0.898039 0.898039
Kd 0.8 0.803921 0.733334
map_Kd 7___Default7.jpg
newmtl 9___Default9
Ka 0 0 0
Ns 1.82212
Ks 0.807843 0.807843 0.807843
Kd 0.481051 0.481051 0.481051
map_Kd 9___Default9.jpg
newmtl 7___Default8
Ka 0 0 0
Ns 1.82212
Ks 0.898039 0.898039 0.898039
Kd 0.8 0.803921 0.733334
map_Kd 7___Default8.jpg
newmtl 7___Default9
Ka 0 0 0
Ns 1.82212
Ks 0.898039 0.898039 0.898039
Kd 0.8 0.803921 0.733334
map_Kd 7___Default9.jpg
newmtl 8___Default10
Ka 0 0 0
Ns 1.82212
Ks 0 0 0
Kd 0.231373 0.231373 0.231373
map_Kd 8___Default10.jpg
newmtl 8___Default11
Ka 0 0 0
Ns 1.82212
Ks 0 0 0
Kd 0.231373 0.231373 0.231373
map_Kd 8___Default11.jpg
newmtl 8___Default12
Ka 0 0 0
Ns 1.82212
Ks 0 0 0
Kd 0.231373 0.231373 0.231373
map_Kd 8___Default12.jpg
newmtl 9___Default10
Ka 0 0 0
Ns 1.82212
Ks 0.807843 0.807843 0.807843
Kd 0.481051 0.481051 0.481051
map_Kd 9___Default10.jpg
newmtl 9___Default11
Ka 0 0 0
Ns 1.82212
Ks 0.807843 0.807843 0.807843
Kd 0.481051 0.481051 0.481051
map_Kd 9___Default11.jpg
newmtl 9___Default12
Ka 0 0 0
Ns 1.82212
Ks 0.807843 0.807843 0.807843
Kd 0.481051 0.481051 0.481051
map_Kd 9___Default12.jpg
newmtl 9___Default13
Ka 0 0 0
Ns 1.82212
Ks 0.807843 0.807843 0.807843
Kd 0.481051 0.481051 0.481051
map_Kd 9___Default13.jpg
newmtl 9___Default14
Ka 0 0 0
Ns 1.82212
Ks 0.807843 0.807843 0.807843
Kd 0.481051 0.481051 0.481051
map_Kd 9___Default14.jpg
newmtl 8___Default13
Ka 0 0 0
Ns 1.82212
Ks 0 0 0
Kd 0.231373 0.231373 0.231373
map_Kd 8___Default13.jpg
newmtl 8___Default14
Ka 0 0 0
Ns 1.82212
Ks 0 0 0
Kd 0.231373 0.231373 0.231373
map_Kd 8___Default14.jpg
newmtl 6___Default2
Ka 0 0 0
Ns 1.82212
Ks 0.94902 0.94902 0.94902
Kd 0.729785 0.729785 0.729785
map_Kd 6___Default2.jpg
newmtl 7___Default10
Ka 0 0 0
Ns 1.82212
Ks 0.898039 0.898039 0.898039
Kd 0.8 0.803921 0.733334
map_Kd 7___Default10.jpg
newmtl 7___Default11
Ka 0 0 0
Ns 1.82212
Ks 0.898039 0.898039 0.898039
Kd 0.8 0.803921 0.733334
map_Kd 7___Default11.jpg
newmtl 7___Default12
Ka 0 0 0
Ns 1.82212
Ks 0.898039 0.898039 0.898039
Kd 0.8 0.803921 0.733334
map_Kd 7___Default12.jpg
newmtl 7___Default13
Ka 0 0 0
Ns 1.82212
Ks 0.898039 0.898039 0.898039
Kd 0.8 0.803921 0.733334
map_Kd 7___Default13.jpg
newmtl 8___Default15
Ka 0 0 0
Ns 1.82212
Ks 0 0 0
Kd 0.231373 0.231373 0.231373
map_Kd 8___Default15.jpg
newmtl 8___Default16
Ka 0 0 0
Ns 1.82212
Ks 0 0 0
Kd 0.231373 0.231373 0.231373
map_Kd 8___Default16.jpg
newmtl 8___Default17
Ka 0 0 0
Ns 1.82212
Ks 0 0 0
Kd 0.231373 0.231373 0.231373
map_Kd 8___Default17.jpg
newmtl 9___Default15
Ka 0 0 0
Ns 1.82212
Ks 0.807843 0.807843 0.807843
Kd 0.481051 0.481051 0.481051
map_Kd 9___Default15.jpg
newmtl 9___Default16
Ka 0 0 0
Ns 1.82212
Ks 0.807843 0.807843 0.807843
Kd 0.481051 0.481051 0.481051
map_Kd 9___Default16.jpg
newmtl 9___Default17
Ka 0 0 0
Ns 1.82212
Ks 0.807843 0.807843 0.807843
Kd 0.481051 0.481051 0.481051
map_Kd 9___Default17.jpg
newmtl 9___Default18
Ka 0 0 0
Ns 1.82212
Ks 0.807843 0.807843 0.807843
Kd 0.481051 0.481051 0.481051
map_Kd 9___Default18.jpg
newmtl 9___Default19
Ka 0 0 0
Ns 1.82212
Ks 0.807843 0.807843 0.807843
Kd 0.481051 0.481051 0.481051
map_Kd 9___Default19.jpg
newmtl 8___Default18
Ka 0 0 0
Ns 1.82212
Ks 0 0 0
Kd 0.231373 0.231373 0.231373
map_Kd 8___Default18.jpg
newmtl 8___Default19
Ka 0 0 0
Ns 1.82212
Ks 0 0 0
Kd 0.231373 0.231373 0.231373
map_Kd 8___Default19.jpg
newmtl 6___Default3
Ka 0 0 0
Ns 1.82212
Ks 0.94902 0.94902 0.94902
Kd 0.729785 0.729785 0.729785
map_Kd 6___Default3.jpg
newmtl 7___Default14
Ka 0 0 0
Ns 1.82212
Ks 0.898039 0.898039 0.898039
Kd 0.8 0.803921 0.733334
map_Kd 7___Default14.jpg
newmtl 7___Default15
Ka 0 0 0
Ns 1.82212
Ks 0.898039 0.898039 0.898039
Kd 0.8 0.803921 0.733334
map_Kd 7___Default15.jpg
newmtl 7___Default16
Ka 0 0 0
Ns 1.82212
Ks 0.898039 0.898039 0.898039
Kd 0.8 0.803921 0.733334
map_Kd 7___Default16.jpg
newmtl 7___Default17
Ka 0 0 0
Ns 1.82212
Ks 0.898039 0.898039 0.898039
Kd 0.8 0.803921 0.733334
map_Kd 7___Default17.jpg
newmtl 8___Default20
Ka 0 0 0
Ns 1.82212
Ks 0 0 0
Kd 0.231373 0.231373 0.231373
map_Kd 8___Default20.jpg
newmtl 8___Default21
Ka 0 0 0
Ns 1.82212
Ks 0 0 0
Kd 0.231373 0.231373 0.231373
map_Kd 8___Default21.jpg
newmtl 8___Default22
Ka 0 0 0
Ns 1.82212
Ks 0 0 0
Kd 0.231373 0.231373 0.231373
map_Kd 8___Default22.jpg
newmtl 9___Default20
Ka 0 0 0
Ns 1.82212
Ks 0.807843 0.807843 0.807843
Kd 0.481051 0.481051 0.481051
map_Kd 9___Default20.jpg
newmtl 9___Default21
Ka 0 0 0
Ns 1.82212
Ks 0.807843 0.807843 0.807843
Kd 0.481051 0.481051 0.481051
map_Kd 9___Default21.jpg
newmtl 9___Default22
Ka 0 0 0
Ns 1.82212
Ks 0.807843 0.807843 0.807843
Kd 0.481051 0.481051 0.481051
map_Kd 9___Default22.jpg
newmtl 9___Default23
Ka 0 0 0
Ns 1.82212
Ks 0.807843 0.807843 0.807843
Kd 0.481051 0.481051 0.481051
map_Kd 9___Default23.jpg
newmtl 9___Default24
Ka 0 0 0
Ns 1.82212
Ks 0.807843 0.807843 0.807843
Kd 0.481051 0.481051 0.481051
map_Kd 9___Default24.jpg
newmtl 8___Default23
Ka 0 0 0
Ns 1.82212
Ks 0 0 0
Kd 0.231373 0.231373 0.231373
map_Kd 8___Default23.jpg
newmtl 8___Default24
Ka 0 0 0
Ns 1.82212
Ks 0 0 0
Kd 0.231373 0.231373 0.231373
map_Kd 8___Default24.jpg
newmtl 6___Default4
Ka 0 0 0
Ns 1.82212
Ks 0.94902 0.94902 0.94902
Kd 0.729785 0.729785 0.729785
map_Kd 6___Default4.jpg
newmtl 7___Default18
Ka 0 0 0
Ns 1.82212
Ks 0.898039 0.898039 0.898039
Kd 0.8 0.803921 0.733334
map_Kd 7___Default18.jpg
newmtl 7___Default19
Ka 0 0 0
Ns 1.82212
Ks 0.898039 0.898039 0.898039
Kd 0.8 0.803921 0.733334
map_Kd 7___Default19.jpg
newmtl 6___Default5
Ka 0 0 0
Ns 1.82212
Ks 0.94902 0.94902 0.94902
Kd 0.729785 0.729785 0.729785
map_Kd 6___Default5.jpg
newmtl 7___Default20
Ka 0 0 0
Ns 1.82212
Ks 0.898039 0.898039 0.898039
Kd 0.8 0.803921 0.733334
map_Kd 7___Default20.jpg
newmtl 7___Default21
Ka 0 0 0
Ns 1.82212
Ks 0.898039 0.898039 0.898039
Kd 0.8 0.803921 0.733334
map_Kd 7___Default21.jpg
newmtl 8___Default25
Ka 0 0 0
Ns 1.82212
Ks 0 0 0
Kd 0.231373 0.231373 0.231373
map_Kd 8___Default25.jpg
newmtl 8___Default26
Ka 0 0 0
Ns 1.82212
Ks 0 0 0
Kd 0.231373 0.231373 0.231373
map_Kd 8___Default26.jpg
newmtl 8___Default27
Ka 0 0 0
Ns 1.82212
Ks 0 0 0
Kd 0.231373 0.231373 0.231373
map_Kd 8___Default27.jpg
newmtl 8___Default28
Ka 0 0 0
Ns 1.82212
Ks 0 0 0
Kd 0.231373 0.231373 0.231373
map_Kd 8___Default28.jpg
newmtl 7___Default22
Ka 0 0 0
Ns 1.82212
Ks 0.898039 0.898039 0.898039
Kd 0.8 0.803921 0.733334
map_Kd 7___Default22.jpg
newmtl 9___Default25
Ka 0 0 0
Ns 1.82212
Ks 0.807843 0.807843 0.807843
Kd 0.481051 0.481051 0.481051
map_Kd 9___Default25.jpg
newmtl 9___Default26
Ka 0 0 0
Ns 1.82212
Ks 0.807843 0.807843 0.807843
Kd 0.481051 0.481051 0.481051
map_Kd 9___Default26.jpg
newmtl 8___Default29
Ka 0 0 0
Ns 1.82212
Ks 0 0 0
Kd 0.231373 0.231373 0.231373
map_Kd 8___Default29.jpg
newmtl 9___Default27
Ka 0 0 0
Ns 1.82212
Ks 0.807843 0.807843 0.807843
Kd 0.481051 0.481051 0.481051
map_Kd 9___Default27.jpg
newmtl 9___Default28
Ka 0 0 0
Ns 1.82212
Ks 0.807843 0.807843 0.807843
Kd 0.481051 0.481051 0.481051
map_Kd 9___Default28.jpg
newmtl 7___Default23
Ka 0 0 0
Ns 1.82212
Ks 0.898039 0.898039 0.898039
Kd 0.8 0.803921 0.733334
map_Kd 7___Default23.jpg
newmtl 9___Default29
Ka 0 0 0
Ns 1.82212
Ks 0.807843 0.807843 0.807843
Kd 0.481051 0.481051 0.481051
map_Kd 9___Default29.jpg
newmtl 7___Default24
Ka 0 0 0
Ns 1.82212
Ks 0.898039 0.898039 0.898039
Kd 0.8 0.803921 0.733334
map_Kd 7___Default24.jpg
newmtl 7___Default25
Ka 0 0 0
Ns 1.82212
Ks 0.898039 0.898039 0.898039
Kd 0.8 0.803921 0.733334
map_Kd 7___Default25.jpg
newmtl 8___Default30
Ka 0 0 0
Ns 1.82212
Ks 0 0 0
Kd 0.231373 0.231373 0.231373
map_Kd 8___Default30.jpg
newmtl 8___Default31
Ka 0 0 0
Ns 1.82212
Ks 0 0 0
Kd 0.231373 0.231373 0.231373
map_Kd 8___Default31.jpg
newmtl 8___Default32
Ka 0 0 0
Ns 1.82212
Ks 0 0 0
Kd 0.231373 0.231373 0.231373
map_Kd 8___Default32.jpg
newmtl 9___Default30
Ka 0 0 0
Ns 1.82212
Ks 0.807843 0.807843 0.807843
Kd 0.481051 0.481051 0.481051
map_Kd 9___Default30.jpg
newmtl 9___Default31
Ka 0 0 0
Ns 1.82212
Ks 0.807843 0.807843 0.807843
Kd 0.481051 0.481051 0.481051
map_Kd 9___Default31.jpg
newmtl 9___Default32
Ka 0 0 0
Ns 1.82212
Ks 0.807843 0.807843 0.807843
Kd 0.481051 0.481051 0.481051
map_Kd 9___Default32.jpg
newmtl 9___Default33
Ka 0 0 0
Ns 1.82212
Ks 0.807843 0.807843 0.807843
Kd 0.481051 0.481051 0.481051
map_Kd 9___Default33.jpg
newmtl 8___Default33
Ka 0 0 0
Ns 1.82212
Ks 0 0 0
Kd 0.231373 0.231373 0.231373
map_Kd 8___Default33.jpg
newmtl 8___Default34
Ka 0 0 0
Ns 1.82212
Ks 0 0 0
Kd 0.231373 0.231373 0.231373
map_Kd 8___Default34.jpg
newmtl 6___Default6
Ka 0 0 0
Ns 1.82212
Ks 0.94902 0.94902 0.94902
Kd 0.729785 0.729785 0.729785
map_Kd 6___Default6.jpg
newmtl 7___Default26
Ka 0 0 0
Ns 1.82212
Ks 0.898039 0.898039 0.898039
Kd 0.8 0.803921 0.733334
map_Kd 7___Default26.jpg
newmtl 7___Default27
Ka 0 0 0
Ns 1.82212
Ks 0.898039 0.898039 0.898039
Kd 0.8 0.803921 0.733334
map_Kd 7___Default27.jpg
newmtl 9___Default34
Ka 0 0 0
Ns 1.82212
Ks 0.807843 0.807843 0.807843
Kd 0.481051 0.481051 0.481051
map_Kd 9___Default34.jpg
newmtl 7___Default28
Ka 0 0 0
Ns 1.82212
Ks 0.898039 0.898039 0.898039
Kd 0.8 0.803921 0.733334
map_Kd 7___Default28.jpg
newmtl 7___Default29
Ka 0 0 0
Ns 1.82212
Ks 0.898039 0.898039 0.898039
Kd 0.8 0.803921 0.733334
map_Kd 7___Default29.jpg
newmtl 8___Default35
Ka 0 0 0
Ns 1.82212
Ks 0 0 0
Kd 0.231373 0.231373 0.231373
map_Kd 8___Default35.jpg
newmtl 8___Default36
Ka 0 0 0
Ns 1.82212
Ks 0 0 0
Kd 0.231373 0.231373 0.231373
map_Kd 8___Default36.jpg
newmtl 8___Default37
Ka 0 0 0
Ns 1.82212
Ks 0 0 0
Kd 0.231373 0.231373 0.231373
map_Kd 8___Default37.jpg
newmtl 9___Default35
Ka 0 0 0
Ns 1.82212
Ks 0.807843 0.807843 0.807843
Kd 0.481051 0.481051 0.481051
map_Kd 9___Default35.jpg
newmtl 9___Default36
Ka 0 0 0
Ns 1.82212
Ks 0.807843 0.807843 0.807843
Kd 0.481051 0.481051 0.481051
map_Kd 9___Default36.jpg
newmtl 9___Default37
Ka 0 0 0
Ns 1.82212
Ks 0.807843 0.807843 0.807843
Kd 0.481051 0.481051 0.481051
map_Kd 9___Default37.jpg
newmtl 9___Default38
Ka 0 0 0
Ns 1.82212
Ks 0.807843 0.807843 0.807843
Kd 0.481051 0.481051 0.481051
map_Kd 9___Default38.jpg
newmtl 8___Default38
Ka 0 0 0
Ns 1.82212
Ks 0 0 0
Kd 0.231373 0.231373 0.231373
map_Kd 8___Default38.jpg
newmtl 8___Default39
Ka 0 0 0
Ns 1.82212
Ks 0 0 0
Kd 0.231373 0.231373 0.231373
map_Kd 8___Default39.jpg
newmtl 6___Default7
Ka 0 0 0
Ns 1.82212
Ks 0.94902 0.94902 0.94902
Kd 0.729785 0.729785 0.729785
map_Kd 6___Default7.jpg
newmtl 7___Default30
Ka 0 0 0
Ns 1.82212
Ks 0.898039 0.898039 0.898039
Kd 0.8 0.803921 0.733334
map_Kd 7___Default30.jpg
newmtl 7___Default31
Ka 0 0 0
Ns 1.82212
Ks 0.898039 0.898039 0.898039
Kd 0.8 0.803921 0.733334
map_Kd 7___Default31.jpg
newmtl 9___Default39
Ka 0 0 0
Ns 1.82212
Ks 0.807843 0.807843 0.807843
Kd 0.481051 0.481051 0.481051
map_Kd 9___Default39.jpg
newmtl 7___Default32
Ka 0 0 0
Ns 1.82212
Ks 0.898039 0.898039 0.898039
Kd 0.8 0.803921 0.733334
map_Kd 7___Default32.jpg
newmtl 7___Default33
Ka 0 0 0
Ns 1.82212
Ks 0.898039 0.898039 0.898039
Kd 0.8 0.803921 0.733334
map_Kd 7___Default33.jpg
newmtl 8___Default40
Ka 0 0 0
Ns 1.82212
Ks 0 0 0
Kd 0.231373 0.231373 0.231373
map_Kd 8___Default40.jpg
newmtl 8___Default41
Ka 0 0 0
Ns 1.82212
Ks 0 0 0
Kd 0.231373 0.231373 0.231373
map_Kd 8___Default41.jpg
newmtl 8___Default42
Ka 0 0 0
Ns 1.82212
Ks 0 0 0
Kd 0.231373 0.231373 0.231373
map_Kd 8___Default42.jpg
newmtl 9___Default40
Ka 0 0 0
Ns 1.82212
Ks 0.807843 0.807843 0.807843
Kd 0.481051 0.481051 0.481051
map_Kd 9___Default40.jpg
newmtl 9___Default41
Ka 0 0 0
Ns 1.82212
Ks 0.807843 0.807843 0.807843
Kd 0.481051 0.481051 0.481051
map_Kd 9___Default41.jpg
newmtl 9___Default42
Ka 0 0 0
Ns 1.82212
Ks 0.807843 0.807843 0.807843
Kd 0.481051 0.481051 0.481051
map_Kd 9___Default42.jpg
newmtl 9___Default43
Ka 0 0 0
Ns 1.82212
Ks 0.807843 0.807843 0.807843
Kd 0.481051 0.481051 0.481051
map_Kd 9___Default43.jpg
newmtl 9___Default44
Ka 0 0 0
Ns 1.82212
Ks 0.807843 0.807843 0.807843
Kd 0.481051 0.481051 0.481051
map_Kd 9___Default44.jpg
newmtl 8___Default43
Ka 0 0 0
Ns 1.82212
Ks 0 0 0
Kd 0.231373 0.231373 0.231373
map_Kd 8___Default43.jpg
newmtl 8___Default44
Ka 0 0 0
Ns 1.82212
Ks 0 0 0
Kd 0.231373 0.231373 0.231373
map_Kd 8___Default44.jpg
newmtl 6___Default8
Ka 0 0 0
Ns 1.82212
Ks 0.94902 0.94902 0.94902
Kd 0.729785 0.729785 0.729785
map_Kd 6___Default8.jpg
newmtl 7___Default34
Ka 0 0 0
Ns 1.82212
Ks 0.898039 0.898039 0.898039
Kd 0.8 0.803921 0.733334
map_Kd 7___Default34.jpg
newmtl 7___Default35
Ka 0 0 0
Ns 1.82212
Ks 0.898039 0.898039 0.898039
Kd 0.8 0.803921 0.733334
map_Kd 7___Default35.jpg
newmtl 7___Default36
Ka 0 0 0
Ns 1.82212
Ks 0.898039 0.898039 0.898039
Kd 0.8 0.803921 0.733334
map_Kd 7___Default36.jpg
newmtl 7___Default37
Ka 0 0 0
Ns 1.82212
Ks 0.898039 0.898039 0.898039
Kd 0.8 0.803921 0.733334
map_Kd 7___Default37.jpg
newmtl 8___Default45
Ka 0 0 0
Ns 1.82212
Ks 0 0 0
Kd 0.231373 0.231373 0.231373
map_Kd 8___Default45.jpg
newmtl 8___Default46
Ka 0 0 0
Ns 1.82212
Ks 0 0 0
Kd 0.231373 0.231373 0.231373
map_Kd 8___Default46.jpg
newmtl 8___Default47
Ka 0 0 0
Ns 1.82212
Ks 0 0 0
Kd 0.231373 0.231373 0.231373
map_Kd 8___Default47.jpg
newmtl 9___Default45
Ka 0 0 0
Ns 1.82212
Ks 0.807843 0.807843 0.807843
Kd 0.481051 0.481051 0.481051
map_Kd 9___Default45.jpg
newmtl 9___Default46
Ka 0 0 0
Ns 1.82212
Ks 0.807843 0.807843 0.807843
Kd 0.481051 0.481051 0.481051
map_Kd 9___Default46.jpg
newmtl 9___Default47
Ka 0 0 0
Ns 1.82212
Ks 0.807843 0.807843 0.807843
Kd 0.481051 0.481051 0.481051
map_Kd 9___Default47.jpg
newmtl 9___Default48
Ka 0 0 0
Ns 1.82212
Ks 0.807843 0.807843 0.807843
Kd 0.481051 0.481051 0.481051
map_Kd 9___Default48.jpg
newmtl 9___Default49
Ka 0 0 0
Ns 1.82212
Ks 0.807843 0.807843 0.807843
Kd 0.481051 0.481051 0.481051
map_Kd 9___Default49.jpg
newmtl 8___Default48
Ka 0 0 0
Ns 1.82212
Ks 0 0 0
Kd 0.231373 0.231373 0.231373
map_Kd 8___Default48.jpg
newmtl 8___Default49
Ka 0 0 0
Ns 1.82212
Ks 0 0 0
Kd 0.231373 0.231373 0.231373
map_Kd 8___Default49.jpg
newmtl 6___Default9
Ka 0 0 0
Ns 1.82212
Ks 0.94902 0.94902 0.94902
Kd 0.729785 0.729785 0.729785
map_Kd 6___Default9.jpg
newmtl 7___Default38
Ka 0 0 0
Ns 1.82212
Ks 0.898039 0.898039 0.898039
Kd 0.8 0.803921 0.733334
map_Kd 7___Default38.jpg
newmtl 7___Default39
Ka 0 0 0
Ns 1.82212
Ks 0.898039 0.898039 0.898039
Kd 0.8 0.803921 0.733334
map_Kd 7___Default39.jpg
newmtl 7___Default40
Ka 0 0 0
Ns 1.82212
Ks 0.898039 0.898039 0.898039
Kd 0.8 0.803921 0.733334
map_Kd 7___Default40.jpg
newmtl 7___Default41
Ka 0 0 0
Ns 1.82212
Ks 0.898039 0.898039 0.898039
Kd 0.8 0.803921 0.733334
map_Kd 7___Default41.jpg
newmtl 8___Default50
Ka 0 0 0
Ns 1.82212
Ks 0 0 0
Kd 0.231373 0.231373 0.231373
map_Kd 8___Default50.jpg
newmtl 8___Default51
Ka 0 0 0
Ns 1.82212
Ks 0 0 0
Kd 0.231373 0.231373 0.231373
map_Kd 8___Default51.jpg
newmtl 8___Default52
Ka 0 0 0
Ns 1.82212
Ks 0 0 0
Kd 0.231373 0.231373 0.231373
map_Kd 8___Default52.jpg
newmtl 9___Default50
Ka 0 0 0
Ns 1.82212
Ks 0.807843 0.807843 0.807843
Kd 0.481051 0.481051 0.481051
map_Kd 9___Default50.jpg
newmtl 9___Default51
Ka 0 0 0
Ns 1.82212
Ks 0.807843 0.807843 0.807843
Kd 0.481051 0.481051 0.481051
map_Kd 9___Default51.jpg
newmtl 6___Default10
Ka 0 0 0
Ns 1.82212
Ks 0.94902 0.94902 0.94902
Kd 0.729785 0.729785 0.729785
map_Kd 6___Default10.jpg
newmtl 9___Default52
Ka 0 0 0
Ns 1.82212
Ks 0.807843 0.807843 0.807843
Kd 0.481051 0.481051 0.481051
map_Kd 9___Default52.jpg
newmtl 9___Default53
Ka 0 0 0
Ns 1.82212
Ks 0.807843 0.807843 0.807843
Kd 0.481051 0.481051 0.481051
map_Kd 9___Default53.jpg
newmtl 8___Default53
Ka 0 0 0
Ns 1.82212
Ks 0 0 0
Kd 0.231373 0.231373 0.231373
map_Kd 8___Default53.jpg
newmtl 8___Default54
Ka 0 0 0
Ns 1.82212
Ks 0 0 0
Kd 0.231373 0.231373 0.231373
map_Kd 8___Default54.jpg
newmtl 1___Default0
Ka 0 0 0
Ns 1.82212
Ks 0.898039 0.780392 0.639216
Kd 0.61573 0.61573 0.61573
map_Kd 1___Default0.jpg
newmtl 7___Default42
Ka 0 0 0
Ns 1.82212
Ks 0.898039 0.898039 0.898039
Kd 0.8 0.803921 0.733334
map_Kd 7___Default42.jpg
newmtl 7___Default43
Ka 0 0 0
Ns 1.82212
Ks 0.898039 0.898039 0.898039
Kd 0.8 0.803921 0.733334
map_Kd 7___Default43.jpg
newmtl 7___Default44
Ka 0 0 0
Ns 1.82212
Ks 0.898039 0.898039 0.898039
Kd 0.8 0.803921 0.733334
map_Kd 7___Default44.jpg
newmtl 7___Default45
Ka 0 0 0
Ns 1.82212
Ks 0.898039 0.898039 0.898039
Kd 0.8 0.803921 0.733334
map_Kd 7___Default45.jpg
newmtl 8___Default55
Ka 0 0 0
Ns 1.82212
Ks 0 0 0
Kd 0.231373 0.231373 0.231373
map_Kd 8___Default55.jpg
newmtl 8___Default56
Ka 0 0 0
Ns 1.82212
Ks 0 0 0
Kd 0.231373 0.231373 0.231373
map_Kd 8___Default56.jpg
newmtl 8___Default57
Ka 0 0 0
Ns 1.82212
Ks 0 0 0
Kd 0.231373 0.231373 0.231373
map_Kd 8___Default57.jpg
newmtl 8___Default58
Ka 0 0 0
Ns 1.82212
Ks 0 0 0
Kd 0.231373 0.231373 0.231373
map_Kd 8___Default58.jpg
newmtl 9___Default54
Ka 0 0 0
Ns 1.82212
Ks 0.807843 0.807843 0.807843
Kd 0.481051 0.481051 0.481051
map_Kd 9___Default54.jpg
newmtl 9___Default55
Ka 0 0 0
Ns 1.82212
Ks 0.807843 0.807843 0.807843
Kd 0.481051 0.481051 0.481051
map_Kd 9___Default55.jpg
newmtl 9___Default56
Ka 0 0 0
Ns 1.82212
Ks 0.807843 0.807843 0.807843
Kd 0.481051 0.481051 0.481051
map_Kd 9___Default56.jpg
newmtl 9___Default57
Ka 0 0 0
Ns 1.82212
Ks 0.807843 0.807843 0.807843
Kd 0.481051 0.481051 0.481051
map_Kd 9___Default57.jpg
newmtl 3___Default0
Ka 0 0 0
Ns 1.82212
Ks 0.898039 0.898039 0.898039
Kd 1 1 1
map_Kd 3___Default0.jpg
newmtl 7___Default46
Ka 0 0 0
Ns 1.82212
Ks 0.898039 0.898039 0.898039
Kd 0.8 0.803921 0.733334
map_Kd 7___Default46.jpg
newmtl 6___Default11
Ka 0 0 0
Ns 1.82212
Ks 0.94902 0.94902 0.94902
Kd 0.729785 0.729785 0.729785
map_Kd 6___Default11.jpg
newmtl 8___Default59
Ka 0 0 0
Ns 1.82212
Ks 0 0 0
Kd 0.231373 0.231373 0.231373
map_Kd 8___Default59.jpg
newmtl block20
Ka 0 0 0
Ns 1.82212
Ks 0.0666667 0.0666667 0.0666667
Kd 0.481051 0.481051 0.481051
map_Kd block20.jpg
newmtl 8___Default60
Ka 0 0 0
Ns 1.82212
Ks 0 0 0
Kd 0.231373 0.231373 0.231373
map_Kd 8___Default60.jpg
newmtl 8___Default61
Ka 0 0 0
Ns 1.82212
Ks 0 0 0
Kd 0.231373 0.231373 0.231373
map_Kd 8___Default61.jpg
newmtl block21
Ka 0 0 0
Ns 1.82212
Ks 0.0666667 0.0666667 0.0666667
Kd 0.481051 0.481051 0.481051
map_Kd block21.jpg
newmtl 8___Default62
Ka 0 0 0
Ns 1.82212
Ks 0 0 0
Kd 0.231373 0.231373 0.231373
map_Kd 8___Default62.jpg
newmtl 1___Default1
Ka 0 0 0
Ns 1.82212
Ks 0.898039 0.780392 0.639216
Kd 0.61573 0.61573 0.61573
map_Kd 1___Default1.jpg
newmtl Gray_Plastic0
Ka 0 0 0
Ns 10.3812
Ks 0.756863 0.921569 1
Kd 0.717647 0.741177 0.784313
map_Kd Gray_Plastic0.jpg
newmtl 8___Default63
Ka 0 0 0
Ns 1.82212
Ks 0 0 0
Kd 0.231373 0.231373 0.231373
map_Kd 8___Default63.jpg
newmtl 8___Default64
Ka 0 0 0
Ns 1.82212
Ks 0 0 0
Kd 0.231373 0.231373 0.231373
map_Kd 8___Default64.jpg
newmtl block22
Ka 0 0 0
Ns 1.82212
Ks 0.0666667 0.0666667 0.0666667
Kd 0.481051 0.481051 0.481051
map_Kd block22.jpg
newmtl 8___Default65
Ka 0 0 0
Ns 1.82212
Ks 0 0 0
Kd 0.231373 0.231373 0.231373
map_Kd 8___Default65.jpg
newmtl 5___Default0
Ka 0 0 0
Ns 1.82212
Ks 0.898039 0.898039 0.898039
Kd 0.765423 0.764911 0.763394
map_Kd 5___Default0.jpg
newmtl 5___Default1
Ka 0 0 0
Ns 1.82212
Ks 0.898039 0.898039 0.898039
Kd 0.765423 0.764911 0.763394
map_Kd 5___Default1.jpg
newmtl 5___Default2
Ka 0 0 0
Ns 1.82212
Ks 0.898039 0.898039 0.898039
Kd 0.765423 0.764911 0.763394
map_Kd 5___Default2.jpg
newmtl 5___Default3
Ka 0 0 0
Ns 1.82212
Ks 0.898039 0.898039 0.898039
Kd 0.765423 0.764911 0.763394
map_Kd 5___Default3.jpg
newmtl 8___Default66
Ka 0 0 0
Ns 1.82212
Ks 0 0 0
Kd 0.231373 0.231373 0.231373
map_Kd 8___Default66.jpg
newmtl 9___Default58
Ka 0 0 0
Ns 1.82212
Ks 0.807843 0.807843 0.807843
Kd 0.481051 0.481051 0.481051
map_Kd 9___Default58.jpg
newmtl 2___Default0
Ka 0 0 0
Ns 1.82212
Ks 0.898039 0.898039 0.898039
Kd 0.676824 0.676824 0.676824
map_Kd 2___Default0.jpg
newmtl 3___Default1
Ka 0 0 0
Ns 1.82212
Ks 0.898039 0.898039 0.898039
Kd 1 1 1
map_Kd 3___Default1.jpg
newmtl 3___Default2
Ka 0 0 0
Ns 1.82212
Ks 0.898039 0.898039 0.898039
Kd 1 1 1
map_Kd 3___Default2.jpg
newmtl Gray_Plastic1
Ka 0 0 0
Ns 10.3812
Ks 0.756863 0.921569 1
Kd 0.717647 0.741177 0.784313
map_Kd Gray_Plastic1.jpg
newmtl Gray_Plastic2
Ka 0 0 0
Ns 10.3812
Ks 0.756863 0.921569 1
Kd 0.717647 0.741177 0.784313
map_Kd Gray_Plastic2.jpg
newmtl 7___Default47
Ka 0 0 0
Ns 1.82212
Ks 0.898039 0.898039 0.898039
Kd 0.8 0.803921 0.733334
map_Kd 7___Default47.jpg
newmtl 6___Default12
Ka 0 0 0
Ns 1.82212
Ks 0.94902 0.94902 0.94902
Kd 0.729785 0.729785 0.729785
map_Kd 6___Default12.jpg
newmtl 9___Default59
Ka 0 0 0
Ns 1.82212
Ks 0.807843 0.807843 0.807843
Kd 0.481051 0.481051 0.481051
map_Kd 9___Default59.jpg
newmtl 6___Default13
Ka 0 0 0
Ns 1.82212
Ks 0.94902 0.94902 0.94902
Kd 0.729785 0.729785 0.729785
map_Kd 6___Default13.jpg
newmtl 5___Default4
Ka 0 0 0
Ns 1.82212
Ks 0.898039 0.898039 0.898039
Kd 0.765423 0.764911 0.763394
map_Kd 5___Default4.jpg
newmtl 5___Default5
Ka 0 0 0
Ns 1.82212
Ks 0.898039 0.898039 0.898039
Kd 0.765423 0.764911 0.763394
map_Kd 5___Default5.jpg
newmtl 4___Default
Ka 0 0 0
Ns 1.82212
Ks 1 1 1
Kd 0.436319 0.45793 0.594579
map_Kd 4___Default.jpg
newmtl 8___Default67
Ka 0 0 0
Ns 1.82212
Ks 0 0 0
Kd 0.231373 0.231373 0.231373
map_Kd 8___Default67.jpg
newmtl disco
Ka 0 0 0
Ns 1.82212
Ks 0.898039 0.898039 0.898039
Kd 0.581851 0.581644 0.581747
map_Kd disco.jpg
newmtl 11___Default0
Ka 0 0 0
Ns 1.82212
Ks 0.898039 0.898039 0.898039
Kd 0.676824 0.676824 0.676824
map_Kd 11___Default0.jpg
newmtl 11___Default1
Ka 0 0 0
Ns 1.82212
Ks 0.898039 0.898039 0.898039
Kd 0.676824 0.676824 0.676824
map_Kd 11___Default1.jpg
newmtl 1___Default2
Ka 0 0 0
Ns 1.82212
Ks 0.898039 0.780392 0.639216
Kd 0.61573 0.61573 0.61573
map_Kd 1___Default2.jpg
newmtl 2___Default1
Ka 0 0 0
Ns 1.82212
Ks 0.898039 0.898039 0.898039
Kd 0.676824 0.676824 0.676824
map_Kd 2___Default1.jpg
newmtl 1___Default3
Ka 0 0 0
Ns 1.82212
Ks 0.898039 0.780392 0.639216
Kd 0.61573 0.61573 0.61573
map_Kd 1___Default3.jpg
newmtl 1___Default4
Ka 0 0 0
Ns 1.82212
Ks 0.898039 0.780392 0.639216
Kd 0.61573 0.61573 0.61573
map_Kd 1___Default4.jpg
newmtl 1___Default5
Ka 0 0 0
Ns 1.82212
Ks 0.898039 0.780392 0.639216
Kd 0.61573 0.61573 0.61573
map_Kd 1___Default5.jpg
newmtl 1___Default6
Ka 0 0 0
Ns 1.82212
Ks 0.898039 0.780392 0.639216
Kd 0.61573 0.61573 0.61573
map_Kd 1___Default6.jpg
newmtl 1___Default7
Ka 0 0 0
Ns 1.82212
Ks 0.898039 0.780392 0.639216
Kd 0.61573 0.61573 0.61573
map_Kd 1___Default7.jpg
newmtl 1___Default8
Ka 0 0 0
Ns 1.82212
Ks 0.898039 0.780392 0.639216
Kd 0.61573 0.61573 0.61573
map_Kd 1___Default8.jpg
newmtl 1___Default9
Ka 0 0 0
Ns 1.82212
Ks 0.898039 0.780392 0.639216
Kd 0.61573 0.61573 0.61573
map_Kd 1___Default9.jpg
newmtl reactfront
Ka 0 0 0
Ns 1.82212
Ks 0.592157 0.592157 0.592157
Kd 0.655614 0.655614 0.655614
map_Kd reactfront.jpg
