-3.0050048486352 58.6350001084662
-4.07382849772802 57.5530248073552
-3.05500179687766 57.6900190293609
-1.95928056477683 57.6847997096995
-2.21998816568939 56.8700174017535
-3.11900305827112 55.9737930365155
-2.08500932454305 55.9099984808512
-1.11499101399224 54.6249864772654
-0.430484991854115 54.4643761257022
0.184981316742125 53.3250141465309
0.469976840831777 52.9299994980919
1.68153079591482 52.739520168664
1.55998782716429 52.0999984808361
1.050561557631 51.8067605657957
1.4498653499503 51.2894278021219
0.550333693045673 50.7657388372761
-0.78751746255864 50.7749889186563
-2.48999752441446 50.5000186224312
-2.95627397298395 50.6968799912471
-3.61744808594233 50.2283556178727
-4.54250790039916 50.3418370631857
-5.24502315919105 49.9599999049812
-5.7765669417453 50.1596776393569
-4.30998979330192 51.2100011256892
-3.41485063314204 51.4260086126692
-4.98436723471079 51.593466091511
-5.26729570150889 51.9914004583747
-4.22234656413485 52.3013556992614
-4.77001339356411 52.8400049912555
-4.57999915202691 53.4950037705551
-3.09207963704702 53.4044408229636
-2.94500851074437 53.9849997015466
-3.63000545898933 54.615012925833
-4.844169073903 54.7909711777869
-5.08252661784923 55.0616006536994
-4.71911210775664 55.5084726019433
-5.04798092286214 55.7839855007074
-5.58639767091114 55.3111461452368
-5.64499874513018 56.2750149603448
-6.14998084148635 56.7850096706335
-5.78682471355521 57.8188483750646
-5.00999874512758 58.6300133327501
-4.21149451335359 58.5508450384791
-3.0050048486352 58.6350001084662
