173.020374790741 -40.9190524228564
173.247234328502 -41.3319987933008
173.958405389703 -40.9267005348356
174.247586704808 -41.3491553688218
174.248516880589 -41.7700082334068
173.876446568088 -42.2331840960388
173.222739699596 -42.9700383440887
172.711246372771 -43.3722876930486
173.08011274647 -43.8533436012536
172.308583612353 -43.8656942685713
171.452925246464 -44.2425188128437
171.185137974327 -44.8971041806849
170.616697219117 -45.9089287249597
169.831422154009 -46.3557748349876
169.332331170934 -46.6412354469679
168.411353794629 -46.6199447568636
167.763744745147 -46.2901974424092
166.676886021184 -46.2199174944923
166.509144321965 -45.8527047666262
167.046424188503 -45.1109412575087
168.303763462597 -44.1239730771661
168.949408807652 -43.9358191871914
169.667814569373 -43.5553256162264
170.524919875366 -43.0316883278128
171.125089960004 -42.5127535947379
171.569713983443 -41.7674244117921
171.948708937872 -41.5144165992912
172.097227004279 -40.9561044248098
172.798579543344 -40.4939620908235
173.020374790741 -40.9190524228564
