-90.5471191406249 69.4976806640626
-90.5515136718749 68.47509765625
-89.2150878906249 69.2587280273439
-88.0195922851562 68.6151123046876
-88.3175048828124 67.8734741210938
-87.3500976562499 67.1987304687501
-86.3060913085937 67.9215087890626
-85.5765991210937 68.7844848632813
-85.5219116210938 69.882080078125
-84.1007690429687 69.8054809570313
-82.6224975585937 69.6583251953126
-81.2803955078125 69.162109375
-81.22021484375 68.6657104492188
-81.9642944335937 68.1325073242188
-81.25927734375 67.5972900390625
-81.3864746093749 67.1109008789062
-83.344482421875 66.4116821289062
-84.7354125976562 66.2573242187501
-85.7694091796874 66.5582885742189
-86.067626953125 66.0562744140626
-87.0313720703124 65.2130737304689
-87.3231811523437 64.7756958007814
-88.48291015625 64.0991210937501
-89.9144287109374 64.0327148437501
-90.7039794921874 63.6102905273439
-90.77001953125 62.9603271484375
-91.9334106445312 62.8350830078126
-93.156982421875 62.0247192382814
-94.2415161132812 60.898681640625
-94.6292724609374 60.1102905273438
-94.6845092773437 58.9489135742188
-93.2150268554687 58.7821044921875
-92.7645874023437 57.8457031250001
-92.2969970703124 57.0870971679688
-90.897705078125 57.2847290039063
-89.0394897460937 56.8516845703125
-88.0397949218749 56.4716796875001
-87.3242187499999 55.9990844726562
-86.0712280273438 55.723876953125
-85.0117797851562 55.3026733398439
-83.3604736328124 55.2448730468751
-82.2728271484374 55.1483154296876
-82.4362182617187 54.2822875976562
-82.1249999999999 53.277099609375
-81.4006958007812 52.1578979492188
-79.9129028320312 51.2084960937501
-79.1430053710937 51.5338745117188
-78.6019287109374 52.5620727539063
-79.1242065429687 54.1414794921876
-79.8295898437499 54.6677246093751
-78.2286987304687 55.1364746093751
-77.0955810546875 55.8375244140625
-76.5413818359375 56.5343017578125
-76.6231079101562 57.2026977539063
-77.3021850585937 58.0521240234376
-78.5169067382812 58.8046875000001
-77.336669921875 59.8527221679688
-77.7727050781249 60.7578735351564
-78.1068115234375 62.3197021484375
-77.4105834960938 62.5504760742188
-75.6962280273437 62.2785034179688
-74.6682128906249 62.1810913085938
-73.8399047851562 62.4439086914063
-72.9085083007812 62.1051025390625
-71.6770019531249 61.5253295898438
-71.3737182617187 61.1370849609375
-69.5903930664062 61.0615234375001
-69.6203002929687 60.2213134765626
-69.2879028320312 58.9572753906251
-68.37451171875 58.8010864257813
-67.6497802734374 58.2120971679688
-66.2017822265624 58.7672729492188
-65.2451782226563 59.8707275390626
-64.5834960937499 60.3356933593751
-63.8046875 59.4426879882813
-62.5023803710937 58.1671142578126
-61.396484375 56.9675292968751
-61.7985839843749 56.3394775390626
-60.4685058593749 55.7755126953126
-59.5695800781249 55.2041015625
-57.9750976562499 54.9454956054688
-57.3331909179687 54.6265258789064
-56.9368896484375 53.7802734375
-56.1580810546874 53.6475219726562
-55.7562866210937 53.2705078125001
-55.6832885742187 52.1467285156251
-56.4091796874999 51.7706909179688
-57.1268920898437 51.4196777343751
-58.7747802734374 51.0642700195313
-60.0330810546875 50.242919921875
-61.7235717773437 50.0805053710939
-63.8624877929687 50.2910766601564
-65.36328125 50.2982788085938
-66.3989868164062 50.2288818359376
-67.2363281249999 49.511474609375
-68.5111083984374 49.0684814453126
-69.95361328125 47.744873046875
-71.1044921875 46.8217163085938
-70.2551879882812 46.986083984375
-68.6500244140625 48.3001098632813
-66.5524291992188 49.1331176757813
-65.0562133789062 49.2329101562501
-64.1710205078124 48.7424926757813
-65.115478515625 48.0709228515626
-64.7985229492187 46.9931030273439
-64.4721069335937 46.2385253906251
-63.1732788085937 45.7390747070312
-61.5206909179687 45.8839111328126
-60.5181274414062 47.0078735351563
-60.4486083984375 46.28271484375
-59.8027954101562 45.9204711914062
-61.039794921875 45.2653198242188
-63.2546997070312 44.6702880859376
-64.2465820312499 44.2655029296875
-65.3640747070312 43.5452880859375
-66.1234130859374 43.6187133789063
-66.1616821289062 44.4650878906251
-64.4254760742187 45.2921142578126
-66.0260009765625 45.2592773437501
-67.1373901367187 45.1375122070312
-66.964599609375 44.8096923828126
-68.0324707031249 44.3253173828126
-69.0599975585937 43.9801025390625
-70.1160888671875 43.68408203125
-70.6900024414062 43.0300903320313
-70.8148803710937 42.8652954101563
-70.8250122070312 42.3350830078126
-70.4949951171875 41.8051147460939
-70.0800170898437 41.7800903320313
-70.1849975585937 42.1450805664063
-69.8848876953124 41.9229125976563
-69.9650268554687 41.6370849609376
-70.6400146484374 41.4750976562501
-71.1203002929687 41.4945068359375
-71.8599853515625 41.3201293945312
-72.2949829101562 41.2700805664064
-72.8764038085937 41.2207031250001
-73.7100219726562 40.9310913085938
-72.2412109374999 41.1195068359375
-71.9450073242187 40.9301147460938
-73.3449096679687 40.6301269531251
-73.9819946289062 40.6281127929689
-73.9522705078125 40.7506713867188
-74.2567138671874 40.4735107421876
-73.9624023437499 40.4276733398438
-74.1784057617187 39.7092895507813
-74.9060058593749 38.9395141601564
-74.9804077148437 39.1964721679687
-75.2000122070313 39.2484741210938
-75.528076171875 39.4984741210938
-75.3200073242187 38.9600830078126
-75.08349609375 38.7813110351563
-75.0567016601562 38.4041137695314
-75.3773803710937 38.0155029296875
-75.940185546875 37.2169189453126
-76.0311889648438 37.2567138671875
-75.7219848632812 37.9370727539062
-76.2327880859375 38.3192749023439
-76.3499755859375 39.1500854492189
-76.542724609375 38.7177124023439
-76.3292846679687 38.0833129882814
-76.9600219726562 38.23291015625
-76.3015747070312 37.9180908203126
-76.2587280273437 36.9664916992188
-75.9718017578124 36.8972778320313
-75.8679809570312 36.5513305664064
-75.7274780273437 35.5507202148439
-76.3630981445312 34.8084716796875
-77.3975830078125 34.5120849609375
-78.0548706054687 33.9254760742189
-78.5543212890625 33.8613281250001
-79.0606079101562 33.4940795898438
-79.2034912109375 33.1585083007814
-80.3012695312499 32.5092773437501
-80.8649902343749 32.0333251953126
-81.3363037109374 31.4404907226563
-81.4904174804687 30.7301025390626
-81.3137207031249 30.0355224609375
-80.97998046875 29.1801147460938
-80.5355834960936 28.4721069335938
-80.530029296875 28.0401000976563
-80.0565185546874 26.8801269531251
-80.0880126953125 26.2056884765626
-80.1314697265624 25.8168945312501
-80.3809814453125 25.206298828125
-80.6799926757812 25.0800781250001
-81.1721191406249 25.2012939453126
-81.3300170898437 25.6400756835938
-81.7100219726562 25.8701171875001
-82.2399902343749 26.7301025390625
-82.705078125 27.4951171875
-82.8552856445312 27.8862915039062
-82.6500244140624 28.5501098632813
-82.9299926757812 29.1000976562501
-83.7095947265625 29.9367065429688
-84.0999755859374 30.090087890625
-85.1088256835937 29.6362915039062
-85.2877807617187 29.6860961914063
-85.7730102539062 30.1527099609376
-86.4000244140624 30.4000854492188
-87.5302734374999 30.2744750976562
-88.4177856445312 30.3848876953126
-89.1804809570312 30.3161010742188
-89.6049194335937 30.1763305664063
-89.4136962890625 29.8942871093751
-89.4299926757812 29.4887084960938
-89.2175903320313 29.2910766601563
-89.4082031249999 29.1597290039063
-89.7792968749999 29.3071289062501
-90.1546020507812 29.1174926757812
-90.8801879882812 29.1486816406251
-91.626708984375 29.6771240234375
-92.4990844726562 29.5523071289064
-93.2263793945312 29.7838745117189
-93.848388671875 29.7136840820314
-94.6900024414062 29.4801025390625
-95.6002807617187 28.7387084960938
-96.5939941406249 28.3074951171876
-97.1400146484374 27.8300781250001
-97.3699951171874 27.380126953125
-97.3800048828124 26.6901245117189
-97.3300170898437 26.2100830078126
-97.1401977539061 25.8695068359375
-97.1386108398437 25.867919921875
-97.1417846679687 25.8659057617188
-97.5280761718749 24.9921264648438
-97.7028808593749 24.2722778320313
-97.7760009765625 22.9326782226564
-97.8723754882813 22.4442749023438
-97.6989746093749 21.8986816406251
-97.3889770507812 21.4110717773438
-97.1892700195312 20.635498046875
-96.5255126953124 19.8909301757813
-96.2921142578124 19.3204956054688
-95.90087890625 18.828125
-94.8389892578124 18.5626831054688
-94.4257202148437 18.1442871093751
-93.5485839843749 18.4238891601564
-92.7860717773437 18.5249023437501
-92.0372924804687 18.7047119140625
-91.4078979492188 18.8760986328126
-90.7717895507812 19.2841186523439
-90.5335083007812 19.8674926757813
-90.4514770507812 20.7075195312501
-90.2786254882812 20.9998779296876
-89.6013183593749 21.26171875
-88.5438842773437 21.4937133789063
-87.6583862304686 21.4589233398438
-87.0518798828124 21.5435180664064
-86.8120117187499 21.3314819335937
-86.8458862304687 20.8499145507813
-87.3833007812499 20.2554931640626
-87.6209716796875 19.6464843750001
-87.4367065429687 19.4724731445313
-87.5864868164062 19.0401000976563
-87.8372192382812 18.2598876953125
-88.090576171875 18.5167236328126
-88.2999877929687 18.5001220703126
-88.2963256835937 18.3532714843751
-88.1068115234374 18.3486938476563
-88.1234130859374 18.0767211914064
-88.2852783203125 17.6442871093751
-88.1978759765625 17.4895019531251
-88.3026123046874 17.1317138671875
-88.239501953125 17.0360717773439
-88.3554077148437 16.5308837890625
-88.5518188476562 16.2655029296876
-88.7324218749999 16.2337036132814
-88.9306030273437 15.8873291015626
-88.6046142578125 15.7064819335939
-88.518310546875 15.8555297851563
-88.2249755859374 15.7277221679688
-88.12109375 15.6887207031251
-87.9017944335937 15.864501953125
-87.6156005859374 15.8789062500001
-87.5228881835937 15.7973022460939
-87.36767578125 15.846923828125
-86.9031982421874 15.7567138671875
-86.44091796875 15.7828979492188
-86.1192016601563 15.8934936523438
-86.0018920898437 16.0054931640626
-85.6832885742187 15.9536743164064
-85.4439697265624 15.8856811523438
-85.1823730468749 15.9093017578125
-84.9837036132812 15.9959106445313
-84.5269775390625 15.8572998046876
-84.3682250976562 15.8350830078125
-84.0629882812499 15.6483154296876
-83.7739868164062 15.424072265625
-83.4104003906249 15.2708740234376
-83.147216796875 14.9959106445313
-83.2332153320312 14.89990234375
-83.2841796874999 14.6766967773439
-83.1821289062499 14.3107299804687
-83.4124755859374 13.9700927734375
-83.5197753906249 13.5676879882813
-83.5521850585937 13.1270751953125
-83.4984741210937 12.8693237304689
-83.4733276367188 12.4191284179688
-83.6260986328124 12.3209228515626
-83.7196044921875 11.8931274414064
-83.6508789062499 11.6290893554688
-83.8554077148437 11.3732910156251
-83.8088989257812 11.1030883789064
-83.6555786132812 10.9389038085939
-83.4022827148437 10.3955078125
-83.0156860351562 9.99310302734378
-82.5462036132812 9.56628417968757
-82.1870727539062 9.20751953125007
-82.2075805664062 8.9957275390625
-81.80859375 8.95068359375016
-81.714111328125 9.03210449218763
-81.4392089843749 8.78631591796876
-80.9473266601563 8.85852050781261
-80.5219116210937 9.11108398437514
-79.9146118164062 9.31268310546889
-79.5733032226562 9.61169433593759
-79.0211791992187 9.55291748046881
-79.0584106445312 9.45471191406257
-78.5009155273437 9.42047119140624
-78.055908203125 9.2476806640625
-77.7294921875 8.9468994140625
-77.3532714843749 8.67047119140638
-76.8366088867188 8.638671875
-76.0863037109375 9.33691406250014
-75.6746215820312 9.44329833984385
-75.6646728515625 9.77410888671875
-75.4804077148437 10.6190795898438
-74.9069213867187 11.0831298828125
-74.2766723632812 11.1021118164063
-74.1972045898437 11.3104858398438
-73.4146728515625 11.2271118164062
-72.6278076171875 11.7321166992188
-72.2382202148437 11.9556884765626
-71.7540893554687 12.4373168945314
-71.3997802734374 12.3760986328125
-71.1373901367187 12.1130981445312
-71.3316040039062 11.7763061523438
-71.3599853515625 11.5401000976564
-71.9470214843749 11.4232788085938
-71.6207885742187 10.969482421875
-71.6329956054687 10.4464721679688
-72.0740966796875 9.86572265625006
-71.6956176757812 9.07232666015636
-71.2645874023437 9.13732910156257
-71.0399780273437 9.86010742187516
-71.3500976562499 10.2119140625001
-71.4005737304688 10.9691162109375
-70.1552124023437 11.3754882812501
-70.2938232421874 11.8469238281251
-69.9431762695312 12.1622924804687
-69.5842895507812 11.4597167968751
-68.8829956054687 11.4434814453126
-68.2332763671875 10.8856811523439
-68.1940917968749 10.5546875000001
-67.2962036132812 10.5458984375001
-66.227783203125 10.648681640625
-65.6552124023438 10.2009277343751
-64.8903808593749 10.0772705078126
-64.3294067382812 10.3897094726563
-64.3179931640624 10.6414794921876
-63.0792846679687 10.7017211914063
-61.8809204101562 10.7156982421876
-62.7301025390625 10.4202880859376
-62.3884887695312 9.94830322265629
-61.5886840820312 9.87310791015625
-60.8305053710937 9.38128662109384
-60.6712036132812 8.58032226562501
-60.1500854492187 8.60290527343759
-59.7583007812499 8.36712646484381
-59.1016845703124 7.99932861328125
-58.48291015625 7.34771728515638
-58.4548950195312 6.83288574218759
-58.078125 6.80908203125013
-57.5421752929687 6.32128906250004
-57.1473999023437 5.97308349609386
-55.9492797851562 5.77288818359376
-55.841796875 5.953125
-55.0332031249999 6.02532958984385
-53.9580078125 5.75653076171881
-53.618408203125 5.64648437500006
-52.882080078125 5.409912109375
-51.8233032226562 4.56591796875001
-51.6577758789062 4.15631103515635
-51.3170776367187 4.20349121093766
-51.0697021484375 3.65051269531263
-50.5087890624999 1.90148925781264
-49.9739990234374 1.73651123046889
-49.9470825195312 1.04632568359379
-50.6992797851562 0.223083496093764
-50.3881835937499 -0.0783691406249858
-48.6204833984375 -0.235412597656207
-48.5844116210937 -1.23779296874993
-47.8248901367187 -0.581604003906207
-46.5665893554687 -0.940979003906236
-44.9057006835937 -1.55169677734372
-44.4176025390624 -2.13769531249994
-44.5816040039062 -2.69128417968743
-43.4187011718749 -2.38311767578124
-41.4725952148437 -2.91198730468744
-39.9785766601562 -2.87298583984371
-38.5003051757812 -3.70062255859374
-37.2232055664062 -4.82092285156241
-36.4528808593749 -5.10937499999997
-35.5977783203125 -5.14947509765618
-35.2354125976562 -5.46490478515622
-34.8959960937499 -6.73822021484369
-34.7299804687499 -7.34320068359366
-35.128173828125 -8.99639892578116
-35.6369018554687 -9.64929199218743
-37.0465087890625 -11.0407104492187
-37.6835937499999 -12.1712036132812
-38.4238891601562 -13.0380859374999
-38.6738891601562 -13.0576782226562
-38.9531860351562 -13.7933959960937
-38.88232421875 -15.6669921874999
-39.1610107421874 -17.2083740234375
-39.2672729492187 -17.8676757812499
-39.5834960937499 -18.2622070312499
-39.7608032226562 -19.59912109375
-40.7747192382812 -20.9044799804688
-40.9447021484374 -21.9373168945312
-41.7540893554687 -22.37060546875
-41.9882812499999 -22.9700927734375
-43.0747070312499 -22.9677124023437
-44.6478271484374 -23.3519897460938
-45.3521118164062 -23.7968139648437
-46.4721069335937 -24.0889892578125
-47.6489868164062 -24.8851928710937
-48.4954833984374 -25.8770141601562
-48.6409912109375 -26.6237182617187
-48.4746704101562 -27.1759033203124
-48.6614990234375 -28.1860961914062
-48.8884277343749 -28.674072265625
-49.5872802734374 -29.2244873046874
-50.6968994140625 -30.984375
-51.5761718749999 -31.7777099609375
-52.2561035156249 -32.2453002929687
-52.7120971679687 -33.1965942382812
-53.3735961914062 -33.768310546875
-53.8063964843749 -34.3967895507812
-54.935791015625 -34.9525756835938
-55.6740112304687 -34.752685546875
-56.2152099609374 -34.8598022460937
-57.1397094726563 -34.4304809570312
-57.8178100585937 -34.4625244140625
-58.427001953125 -33.9094848632812
-58.4954223632812 -34.4315185546875
-57.2257690429687 -35.2880249023437
-57.3623046874999 -35.9774169921875
-56.7374877929687 -36.4130859374999
-56.7882080078125 -36.9014892578124
-57.7490844726562 -38.1838989257812
-59.2318115234375 -38.7202148437499
-61.2374267578124 -38.9284057617187
-62.3358764648437 -38.8276977539062
-62.1257934570312 -39.424072265625
-62.3305053710937 -40.172607421875
-62.1459960937499 -40.6768798828124
-62.7457885742188 -41.0286865234374
-63.7705078124999 -41.1668090820312
-64.7321166992187 -40.8026123046875
-65.1179809570312 -41.0642700195312
-64.9785766601562 -42.0579833984374
-64.3034057617187 -42.3590087890625
-63.7559204101563 -42.0437011718749
-63.4580078124999 -42.5631103515625
-64.3787841796875 -42.8734741210937
-65.1818237304687 -43.4953002929687
-65.3287963867187 -44.5012817382812
-65.565185546875 -45.0368041992187
-66.5098876953125 -45.0396118164062
-67.2938232421874 -45.5518798828124
-67.5805053710937 -46.3016967773437
-66.5969848632812 -47.0338745117187
-65.6409912109375 -47.2360839843749
-65.9851074218749 -48.1333007812499
-67.1661987304687 -48.6973266601562
-67.8161010742187 -49.8696899414062
-68.7286987304687 -50.2642211914062
-69.1384887695312 -50.7324829101562
-68.8154907226562 -51.7711181640625
-68.1500244140625 -52.3499755859375
-68.5714721679687 -52.2993774414062
-69.4613037109375 -52.2918701171874
-69.9426879882812 -52.5379028320312
-70.8450927734375 -52.8991699218749
-71.0062866210937 -53.8331909179687
-71.4298095703124 -53.8563842773437
-72.5579223632812 -53.5313720703124
-73.7026977539062 -52.8350830078124
-74.9467773437499 -52.2626953124999
-75.2600097656249 -51.6292724609374
-74.9766235351562 -51.0433959960937
-75.4796752929687 -50.3782958984375
-75.6079711914062 -48.6737060546875
-75.1826782226562 -47.7119140625
-74.1265869140625 -46.9392089843749
-75.6444091796874 -46.6475830078125
-74.6920776367187 -45.7639770507812
-74.3516845703124 -44.10302734375
-73.2402954101562 -44.4548950195313
-72.7177124023437 -42.3833007812499
-73.388916015625 -42.1174926757812
-73.7012939453124 -43.3657836914062
-74.3319091796875 -43.2249755859375
-74.0178833007812 -41.7947998046874
-73.6771240234375 -39.9421997070313
-73.2175903320312 -39.2586059570313
-73.5054931640624 -38.2828979492187
-73.5880126953124 -37.1563110351562
-73.1666870117187 -37.1237792968749
-72.5531005859374 -35.5087890625
-71.8616943359375 -33.9091186523437
-71.4384765625 -32.4188842773437
-71.668701171875 -30.9205932617187
-71.3699951171875 -30.095703125
-71.4898071289062 -28.8613891601562
-70.9050903320312 -27.640380859375
-70.7249755859374 -25.7058715820312
-70.4039916992187 -23.6289062499999
-70.0911865234374 -21.3933105468749
-70.1644287109374 -19.7564086914062
-70.3724975585937 -18.347900390625
-71.3751831054687 -17.7738037109375
-71.4619750976562 -17.3634033203125
-73.4445190429687 -16.359375
-75.2377929687499 -15.2656860351562
-76.0092163085937 -14.6492919921874
-76.4234008789062 -13.8231811523437
-76.2592163085937 -13.5349731445312
-77.1062011718749 -12.2227172851562
-78.0921020507812 -10.3776855468749
-79.0369262695313 -8.38659667968749
-79.4459228515624 -7.93078613281244
-79.7604980468749 -7.19427490234371
-80.5374755859375 -6.54168701171871
-81.2499999999999 -6.13677978515624
-80.9262695312499 -5.69049072265618
-81.4108886718749 -4.73669433593749
-81.0996093749999 -4.03637695312496
-80.302490234375 -3.40478515624999
-79.7702026367187 -2.65747070312497
-79.9865112304687 -2.22070312499999
-80.3687133789062 -2.68518066406243
-80.9677124023437 -2.24688720703119
-80.7647705078124 -1.96502685546874
-80.93359375 -1.05737304687494
-80.5833129882813 -0.906677246093679
-80.3992919921875 -0.283691406249972
-80.0208129882812 0.360473632812571
-80.090576171875 0.768493652343864
-79.5427856445312 0.982910156250142
-78.8552856445312 1.38092041015634
-78.9909057617187 1.69128417968763
-78.6177978515624 1.76647949218749
-78.6621093749999 2.26727294921885
-78.4276123046874 2.62969970703138
-77.9315185546874 2.69671630859376
-77.5103759765624 3.32507324218759
-77.1276855468749 3.84967041015641
-77.4962768554687 4.08770751953141
-77.3076171874999 4.66809082031263
-77.533203125 5.58288574218766
-77.3187866210938 5.84527587890635
-77.4766845703124 6.69110107421878
-77.881591796875 7.22387695312507
-78.2149047851562 7.51232910156263
-78.4290771484375 8.05212402343764
-78.1820068359375 8.31927490234384
-78.4354858398437 8.38769531250003
-78.6220703124999 8.71807861328131
-79.1203002929687 8.99609374999999
-79.5578002929687 8.93249511718759
-79.7604980468749 8.58447265625016
-80.1644897460937 8.33331298828126
-80.3826293945312 8.29852294921886
-80.4807128906249 8.09027099609389
-80.0036010742187 7.54748535156251
-80.276611328125 7.419677734375
-80.4210815429687 7.271484375
-80.8864135742187 7.22052001953139
-81.0595092773437 7.81787109375011
-81.189697265625 7.64788818359384
-81.5194702148437 7.70672607421874
-81.7213134765624 8.10888671875007
-82.1314086914063 8.17547607421885
-82.3908691406249 8.29248046875
-82.8200073242187 8.29089355468761
-82.8508911132812 8.07391357421876
-82.9656982421874 8.22509765625013
-83.5084228515625 8.4468994140626
-83.7114868164062 8.65692138671888
-83.5963134765624 8.83050537109389
-83.6326293945312 9.05151367187509
-83.9099121093749 9.2908935546876
-84.3034057617188 9.48748779296879
-84.6475830078125 9.61547851562506
-84.7133789062499 9.90808105468757
-84.9755859375 10.0867309570312
-84.9113769531249 9.79608154296878
-85.1109008789062 9.55712890625007
-85.3394775390625 9.83447265625009
-85.6607055664062 9.93328857421885
-85.7974243164062 10.1348876953126
-85.7916870117187 10.4392700195313
-85.6593017578124 10.7542724609377
-85.9417114257812 10.8953247070313
-85.7125244140624 11.0885009765625
-86.0584106445312 11.4035034179689
-86.52587890625 11.8068847656251
-86.7459106445311 12.1441040039063
-87.16748046875 12.4583129882812
-87.6685180664062 12.9099121093751
-87.5574951171874 13.064697265625
-87.3923950195312 12.9141235351564
-87.3165893554686 12.9846801757814
-87.4893798828125 13.2974853515626
-87.7930908203125 13.384521484375
-87.9041137695312 13.1491088867189
-88.4832763671874 13.1638793945313
-88.8432006835937 13.2597045898438
-89.2567138671875 13.4586791992189
-89.8123779296874 13.5206909179689
-90.0955810546875 13.7354736328125
-90.6085815429687 13.9099121093751
-91.232421875 13.9279174804687
-91.6896972656249 14.1262817382812
-92.2277221679687 14.5388793945313
-93.3593749999999 15.6154785156251
-93.8751831054687 15.9403076171876
-94.6915893554688 16.2011108398438
-95.2501831054687 16.1282958984375
-96.0534057617187 15.7520751953126
-96.5573730468749 15.6535034179688
-97.2636108398437 15.9171142578125
-98.0130004882811 16.1072998046875
-98.9476928710937 16.5661010742189
-99.6973876953124 16.7062988281251
-100.829528808594 17.1710815429688
-101.666076660156 17.6491088867189
-101.918518066406 17.9160766601563
-102.478088378906 17.9758911132812
-103.5009765625 18.2922973632814
-103.91748046875 18.7487182617189
-104.992004394531 19.3162841796876
-105.492980957031 19.9468994140626
-105.731384277344 20.43408203125
-105.397705078125 20.5316772460939
-105.500610351562 20.81689453125
-105.270690917969 21.0762939453125
-105.265808105469 21.422119140625
-105.603088378906 21.8712768554688
-105.693420410156 22.2691040039064
-106.028686523437 22.773681640625
-106.909912109375 23.7678833007814
-107.915405273437 24.5488891601563
-108.401916503906 25.1723022460939
-109.260192871094 25.5806884765625
-109.444091796875 25.8248901367188
-109.291625976562 26.4428710937501
-109.801391601562 26.6760864257812
-110.391723632812 27.162109375
-110.640991210937 27.8599243164064
-111.178894042969 27.9412841796876
-111.759582519531 28.4680786132813
-112.228210449219 28.9545288085939
-112.271789550781 29.2669067382813
-112.809509277344 30.0211181640626
-113.163818359375 30.7869262695314
-113.148681640625 31.1710815429689
-113.871887207031 31.5676879882813
-114.205688476562 31.5241088867189
-114.776428222656 31.7996826171876
-114.936706542969 31.3934936523439
-114.771179199219 30.9136962890626
-114.673889160156 30.1627197265625
-114.330993652344 29.7504882812501
-113.588806152344 29.0617065429688
-113.424011230469 28.8262939453126
-113.271911621094 28.7548828125
-113.140014648437 28.4113159179689
-112.962280273437 28.42529296875
-112.761596679687 27.7802734375
-112.457885742187 27.5258789062501
-112.244873046875 27.1718750000001
-111.616516113281 26.6629028320312
-111.284606933594 25.7327270507813
-110.98779296875 25.2946777343751
-110.710021972656 24.8261108398439
-110.655029296875 24.2987060546876
-110.172790527344 24.2656860351564
-109.771789550781 23.811279296875
-109.409118652344 23.3646850585939
-109.433410644531 23.1857299804688
-109.854187011719 22.8182983398438
-110.031311035156 22.8231201171876
-110.294982910156 23.4310913085937
-110.949523925781 24.0010986328126
-111.670593261719 24.4844970703126
-112.182006835937 24.7385253906251
-112.148986816406 25.4702758789063
-112.300720214844 26.0120849609376
-112.777282714844 26.3220825195312
-113.464599609375 26.7683105468751
-113.5966796875 26.6395263671876
-113.848876953125 26.9000854492188
-114.465698242187 27.14208984375
-115.055114746094 27.7227172851563
-114.982177734375 27.7982788085938
-114.5703125 27.7415161132812
-114.199279785156 28.1151123046876
-114.161987304688 28.5661010742188
-114.931823730469 29.2794799804688
-115.518676757812 29.5562744140626
-115.887390136719 30.1809082031251
-116.25830078125 30.8364868164063
-116.721496582031 31.6356811523439
-117.127685546875 32.5352783203125
-117.2958984375 33.0463256835938
-117.943908691406 33.6212768554689
-118.410583496094 33.7409057617188
-118.519897460938 34.0278930664064
-119.080993652344 34.078125
-119.438781738281 34.3485107421876
-120.367797851562 34.4470825195313
-120.622802734375 34.6085205078126
-120.744323730469 35.1569213867188
-121.714599609375 36.1616821289064
-122.547485351562 37.5518798828126
-122.512023925781 37.7835083007812
-122.953186035156 38.1137084960938
-123.727111816406 38.9517211914064
-123.865112304687 39.7670898437501
-124.398010253906 40.3132934570313
-124.178771972656 41.1420898437501
-124.213684082031 41.9996948242189
-124.532775878906 42.76611328125
-124.14208984375 43.70849609375
-123.89892578125 45.5234985351564
-124.07958984375 46.8646850585938
-124.395690917969 47.7202758789063
-124.687194824219 48.1845092773438
-124.566101074219 48.3796997070313
-123.119995117187 48.0401000976562
-122.587280273437 47.0961303710939
-122.340026855469 47.3601074218751
-122.5 48.1801147460938
-122.840026855469 49.0001220703126
-122.974182128906 49.0026855468751
-124.910217285156 49.9846801757813
-125.624572753906 50.4166870117188
-127.435607910156 50.8306884765626
-127.99267578125 51.7158813476564
-127.850280761719 52.3297119140625
-129.129699707031 52.7554931640625
-129.30517578125 53.5617065429688
-130.514892578125 54.2877197265626
-130.536071777344 54.8026733398438
-131.085815429687 55.1788940429689
-131.967224121094 55.4979248046876
-132.25 56.3701171875001
-133.539184570312 57.1788940429689
-134.078002929687 58.1231079101562
-135.038208007813 58.1876831054688
-136.627990722656 58.2122802734376
-137.799987792969 58.5001220703126
-139.867797851562 59.5379028320313
-140.8251953125 59.7274780273438
-142.574401855469 60.08447265625
-143.958801269531 59.9993286132814
-145.925476074219 60.4586791992188
-147.114379882812 60.8847045898439
-148.224304199219 60.673095703125
-148.018005371094 59.9782714843751
-148.57080078125 59.914306640625
-149.727783203125 59.7056884765625
-150.608215332031 59.3682861328126
-151.71630859375 59.1558837890626
-151.859375 59.7451171875
-151.409729003906 60.7258911132812
-150.346923828125 61.0336914062501
-150.62109375 61.2844848632814
-151.895812988281 60.7272949218751
-152.578308105469 60.0617065429689
-154.019104003906 59.3502807617187
-153.287475585937 58.8646850585938
-154.232482910156 58.1464843750001
-155.307495117187 57.7279052734375
-156.308288574219 57.4229125976562
-156.556091308594 56.9801025390626
-158.1171875 56.4636840820314
-158.433288574219 55.9940795898439
-159.603271484375 55.5667114257813
-160.289672851562 55.6436767578126
-161.223022460937 55.3646850585937
-162.23779296875 55.0242919921876
-163.069396972656 54.6898803710938
-164.785583496094 54.4042968750001
-164.942199707031 54.5723266601564
-163.848327636719 55.0394897460938
-162.869995117187 55.3480834960937
-161.80419921875 55.8950805664064
-160.563598632813 56.0081176757813
-160.070495605469 56.4180908203126
-158.684387207031 57.0167236328126
-158.461120605469 57.2169189453125
-157.722778320312 57.5701293945314
-157.55029296875 58.3283081054689
-157.041687011719 58.9188842773438
-158.194702148437 58.6159057617189
-158.517211914062 58.7879028320313
-159.05859375 58.42431640625
-159.711608886719 58.9315185546876
-159.981201171875 58.5726928710938
-160.355285644531 59.0711059570313
-161.35498046875 58.6708984375
-161.968811035156 58.6716918945313
-162.054992675781 59.2669067382814
-161.874084472656 59.6337280273438
-162.518005371094 59.9896850585938
-163.818298339844 59.7980957031251
-164.662170410156 60.2675170898437
-165.346374511719 60.5075073242188
-165.350769042969 61.0739135742189
-166.121398925781 61.5001220703125
-165.734375 62.0750732421876
-164.919189453125 62.6331176757813
-164.5625 63.146484375
-163.753295898437 63.2194824218751
-163.067199707031 63.0595092773437
-162.260498046875 63.5418701171875
-161.534423828125 63.4558715820312
-160.772521972656 63.7661132812501
-160.958312988281 64.2229003906251
-161.518005371094 64.4028930664063
-160.777709960937 64.7886962890625
-161.391906738281 64.7772827148438
-162.453002929687 64.5595092773438
-162.7578125 64.3386840820313
-163.54638671875 64.55908203125
-164.960815429687 64.4470825195314
-166.42529296875 64.6867065429688
-166.844970703125 65.0889282226562
-168.110473632812 65.6701049804688
-166.705200195312 66.0883178710939
-164.474670410156 66.5767211914063
-163.652526855469 66.5767211914063
-163.788513183594 66.0772705078126
-161.677795410156 66.1160888671875
-162.489685058594 66.7354736328126
-163.7197265625 67.1165161132813
-164.430908203125 67.6162719726563
-165.390197753906 68.0429077148438
-166.764404296875 68.35888671875
-166.204711914062 68.8831176757813
-164.430786132812 68.9155273437501
-163.168579101562 69.3710937500001
-162.930480957031 69.8580932617188
-161.908874511719 70.3333129882814
-160.934814453125 70.4476928710938
-159.039184570312 70.8917236328126
-158.119689941406 70.82470703125
-156.580810546875 71.3579101562501
-155.067810058594 71.1478881835938
-154.344177246094 70.6964721679689
-153.900024414062 70.8900756835939
-152.210021972656 70.830078125
-152.27001953125 70.6000976562501
-150.739990234375 70.4301147460938
-149.719970703125 70.5300903320313
-147.61328125 70.2141113281251
-145.690002441406 70.1201171875
-144.919982910156 69.9901123046875
-143.589416503906 70.1525268554689
-142.072509765625 69.8519287109376
-140.985900878906 69.7120971679689
-139.120483398437 69.4711303710938
-137.54638671875 68.9901123046876
-136.503601074219 68.8980712890626
-135.625671386719 69.3151245117188
-134.414611816406 69.6275024414063
-132.92919921875 69.5053100585938
-131.431274414062 69.9445190429688
-129.794677734375 70.1937255859376
-129.107727050781 69.779296875
-128.361511230469 70.0128784179689
-128.13818359375 70.48388671875
-127.447082519531 70.3773193359376
-125.756286621094 69.4807128906251
-124.4248046875 70.1585083007813
-124.289611816406 69.3997192382812
-123.061096191406 69.5637207031251
-122.683410644531 69.8555297851564
-121.472290039063 69.7979125976563
-119.942810058594 69.3779296875001
-117.602600097656 69.0112915039063
-116.226379394531 68.8414916992188
-115.246887207031 68.9058837890626
-113.897888183594 68.39892578125
-115.304809570312 67.9027099609375
-113.497192382812 67.6882934570312
-110.797912597656 67.8060913085939
-109.946105957031 67.9810791015625
-108.880187988281 67.3815307617189
-107.792419433594 67.8875122070313
-108.81298828125 68.3117065429688
-108.167175292969 68.6539306640626
-106.950012207031 68.7000732421876
-106.150024414062 68.8001098632813
-105.3427734375 68.561279296875
-104.337890625 68.0181274414063
-103.221069335937 68.0979003906251
-101.454284667969 67.6469116210938
-99.9019775390624 67.8057250976564
-98.4431762695312 67.7816772460939
-98.55859375 68.4039306640625
-97.6694946289062 68.5786743164063
-96.1198730468749 68.239501953125
-96.1257934570312 67.2935180664063
-95.4893798828125 68.0906982421875
-94.6849975585937 68.0639038085938
-94.2327880859374 69.0690917968751
-95.3040771484375 69.6857299804688
-96.4713134765624 70.0899047851563
-96.3911132812499 71.1948852539064
-95.2088012695312 71.9204711914062
-93.8898925781249 71.7600708007812
-92.8781127929687 71.3187255859375
-91.5195922851562 70.1912841796875
-92.4069213867186 69.7000732421876
-90.5471191406249 69.4976806640626
